Project
…
# Using summarize and group by
by_TD <- group_by(joinedbyrank, TD.x)
summarise(by_TD, Throwing = mean(TD.y, na.rm = T))

## # A tibble: 30 x 2
##     TD.x Throwing
##    <int>    <dbl>
##  1     0     2   
##  2     1     2.33
##  3     2     3.5 
##  4     4     3.5 
##  5     5     2.5 
##  6     7    11   
##  7     8     7   
##  8     9     5.5 
##  9    10    34   
## 10    11    11.7 
## # … with 20 more rows
…
